dump.vcd
$date
	Thu Nov 06 11:11:59 2025
$end
$version
	Icarus Verilog
$end
$timescale
	1ps
$end
$scope module testbench $end
$var parameter 32 ! HEIGHT $end
$var parameter 32 " PIXEL_BITS $end
$var parameter 32 # WIDTH $end
$var reg 1 $ clk $end
$var reg 2 % mode_sel [1:0] $end
$var reg 1 & reset $end
$scope module DUT $end
$var wire 1 $ clk $end
$var wire 2 ' mode_sel [1:0] $end
$var wire 1 & reset $end
$var wire 24 ( pixel_orig [23:0] $end
$var wire 24 ) pix_up [23:0] $end
$var wire 24 * pix_right [23:0] $end
$var wire 24 + pix_left [23:0] $end
$var wire 24 , pix_down [23:0] $end
$var wire 1 - final_edge $end
$var wire 1 . edge_U $end
$var wire 1 / edge_R $end
$var wire 1 0 edge_L $end
$var wire 1 1 edge_D $end
$var parameter 32 2 HEIGHT $end
$var parameter 32 3 PIXEL_BITS $end
$var parameter 32 4 WIDTH $end
$var reg 16 5 addr [15:0] $end
$scope module edgeComb $end
$var wire 1 - final_edge $end
$var wire 1 . edge_up $end
$var wire 1 / edge_right $end
$var wire 1 0 edge_left $end
$var wire 1 1 edge_down $end
$upscope $end
$scope module img_mem $end
$var wire 16 6 addr [15:0] $end
$var wire 1 $ clk $end
$var wire 1 & reset $end
$var parameter 120 7 FILE_NAME $end
$var parameter 32 8 HEIGHT $end
$var parameter 32 9 PIXEL_BITS $end
$var parameter 32 : WIDTH $end
$var reg 24 ; pixel_out [23:0] $end
$var reg 2048 < runtime_file [2047:0] $end
$var integer 32 = i [31:0] $end
$upscope $end
$scope module outMem $end
$var wire 16 > addr [15:0] $end
$var wire 1 $ clk $end
$var wire 1 - edge_pixel $end
$var wire 1 & reset $end
$var wire 1 ? write_enable $end
$var parameter 120 @ FILE_NAME $end
$var parameter 32 A HEIGHT $end
$var parameter 32 B WIDTH $end
$var reg 1 C mem_out $end
$var integer 32 D i [31:0] $end
$upscope $end
$scope module sD $end
$var wire 16 E addr [15:0] $end
$var wire 1 $ clk $end
$var wire 2 F direction [1:0] $end
$var wire 24 G pixel_in [23:0] $end
$var wire 1 & reset $end
$var parameter 32 H HEIGHT $end
$var parameter 32 I PIXEL_BITS $end
$var parameter 32 J WIDTH $end
$var reg 16 K col [15:0] $end
$var reg 16 L row [15:0] $end
$var reg 16 M shifted_addr [15:0] $end
$var reg 24 N shifted_pixel [23:0] $end
$upscope $end
$scope module sL $end
$var wire 16 O addr [15:0] $end
$var wire 1 $ clk $end
$var wire 2 P direction [1:0] $end
$var wire 24 Q pixel_in [23:0] $end
$var wire 1 & reset $end
$var parameter 32 R HEIGHT $end
$var parameter 32 S PIXEL_BITS $end
$var parameter 32 T WIDTH $end
$var reg 16 U col [15:0] $end
$var reg 16 V row [15:0] $end
$var reg 16 W shifted_addr [15:0] $end
$var reg 24 X shifted_pixel [23:0] $end
$upscope $end
$scope module sR $end
$var wire 16 Y addr [15:0] $end
$var wire 1 $ clk $end
$var wire 2 Z direction [1:0] $end
$var wire 24 [ pixel_in [23:0] $end
$var wire 1 & reset $end
$var parameter 32 \ HEIGHT $end
$var parameter 32 ] PIXEL_BITS $end
$var parameter 32 ^ WIDTH $end
$var reg 16 _ col [15:0] $end
$var reg 16 ` row [15:0] $end
$var reg 16 a shifted_addr [15:0] $end
$var reg 24 b shifted_pixel [23:0] $end
$upscope $end
$scope module sU $end
$var wire 16 c addr [15:0] $end
$var wire 1 $ clk $end
$var wire 2 d direction [1:0] $end
$var wire 24 e pixel_in [23:0] $end
$var wire 1 & reset $end
$var parameter 32 f HEIGHT $end
$var parameter 32 g PIXEL_BITS $end
$var parameter 32 h WIDTH $end
$var reg 16 i col [15:0] $end
$var reg 16 j row [15:0] $end
$var reg 16 k shifted_addr [15:0] $end
$var reg 24 l shifted_pixel [23:0] $end
$upscope $end
$scope module xD $end
$var wire 1 m binary_xor $end
$var wire 2 n mode_sel [1:0] $end
$var wire 24 o pixel_orig [23:0] $end
$var wire 24 p pixel_shift [23:0] $end
$var wire 8 q xorB [7:0] $end
$var wire 8 r xorG [7:0] $end
$var wire 8 s xorGray [7:0] $end
$var wire 8 t xorR [7:0] $end
$var wire 8 u gray2 [7:0] $end
$var wire 8 v gray1 [7:0] $end
$var wire 8 w R2 [7:0] $end
$var wire 8 x R1 [7:0] $end
$var wire 8 y G2 [7:0] $end
$var wire 8 z G1 [7:0] $end
$var wire 8 { B2 [7:0] $end
$var wire 8 | B1 [7:0] $end
$var parameter 32 } PIXEL_BITS $end
$var reg 1 1 edge_out $end
$upscope $end
$scope module xL $end
$var wire 1 ~ binary_xor $end
$var wire 2 !" mode_sel [1:0] $end
$var wire 24 "" pixel_orig [23:0] $end
$var wire 24 #" pixel_shift [23:0] $end
$var wire 8 $" xorB [7:0] $end
$var wire 8 %" xorG [7:0] $end
$var wire 8 &" xorGray [7:0] $end
$var wire 8 '" xorR [7:0] $end
$var wire 8 (" gray2 [7:0] $end
$var wire 8 )" gray1 [7:0] $end
$var wire 8 *" R2 [7:0] $end
$var wire 8 +" R1 [7:0] $end
$var wire 8 ," G2 [7:0] $end
$var wire 8 -" G1 [7:0] $end
$var wire 8 ." B2 [7:0] $end
$var wire 8 /" B1 [7:0] $end
$var parameter 32 0" PIXEL_BITS $end
$var reg 1 0 edge_out $end
$upscope $end
$scope module xR $end
$var wire 1 1" binary_xor $end
$var wire 2 2" mode_sel [1:0] $end
$var wire 24 3" pixel_orig [23:0] $end
$var wire 24 4" pixel_shift [23:0] $end
$var wire 8 5" xorB [7:0] $end
$var wire 8 6" xorG [7:0] $end
$var wire 8 7" xorGray [7:0] $end
$var wire 8 8" xorR [7:0] $end
$var wire 8 9" gray2 [7:0] $end
$var wire 8 :" gray1 [7:0] $end
$var wire 8 ;" R2 [7:0] $end
$var wire 8 <" R1 [7:0] $end
$var wire 8 =" G2 [7:0] $end
$var wire 8 >" G1 [7:0] $end
$var wire 8 ?" B2 [7:0] $end
$var wire 8 @" B1 [7:0] $end
$var parameter 32 A" PIXEL_BITS $end
$var reg 1 / edge_out $end
$upscope $end
$scope module xU $end
$var wire 1 B" binary_xor $end
$var wire 2 C" mode_sel [1:0] $end
$var wire 24 D" pixel_orig [23:0] $end
$var wire 24 E" pixel_shift [23:0] $end
$var wire 8 F" xorB [7:0] $end
$var wire 8 G" xorG [7:0] $end
$var wire 8 H" xorGray [7:0] $end
$var wire 8 I" xorR [7:0] $end
$var wire 8 J" gray2 [7:0] $end
$var wire 8 K" gray1 [7:0] $end
$var wire 8 L" R2 [7:0] $end
$var wire 8 M" R1 [7:0] $end
$var wire 8 N" G2 [7:0] $end
$var wire 8 O" G1 [7:0] $end
$var wire 8 P" B2 [7:0] $end
$var wire 8 Q" B1 [7:0] $end
$var parameter 32 R" PIXEL_BITS $end
$var reg 1 . edge_out $end
$upscope $end
$upscope $end
$upscope $end
$enddefinitions $end
$comment Show the parameter values. $end
$dumpall
b11000 R"
b11000 A"
b11000 0"
b11000 }
b1000 h
b11000 g
b1000 f
b1000 ^
b11000 ]
b1000 \
b1000 T
b11000 S
b1000 R
b1000 J
b11000 I
b1000 H
b1000 B
b1000 A
b11001010110010001100111011001010101111101101111011101010111010001110000011101010111010000101110011011010110010101101101 @
b1000 :
b11000 9
b1000 8
b11010010110110101100001011001110110010101011111011010010110111001110000011101010111010000101110011011010110010101101101 7
b1000 4
b11000 3
b1000 2
b1000 #
b11000 "
b1000 !
$end
#0
$dumpvars
b0 Q"
b0 P"
b0 O"
b0 N"
b0 M"
b0 L"
b0 K"
b0 J"
b0 I"
b0 H"
b0 G"
b0 F"
b0 E"
b0 D"
bx C"
0B"
b0 @"
b0 ?"
b0 >"
b0 ="
b0 <"
b0 ;"
b0 :"
b0 9"
b0 8"
b0 7"
b0 6"
b0 5"
b0 4"
b0 3"
bx 2"
01"
b0 /"
b0 ."
b0 -"
b0 ,"
b0 +"
b0 *"
b0 )"
b0 ("
b0 '"
b0 &"
b0 %"
b0 $"
b0 #"
b0 ""
bx !"
0~
b0 |
b0 {
b0 z
b0 y
b0 x
b0 w
b0 v
b0 u
b0 t
b0 s
b0 r
b0 q
b0 p
b0 o
bx n
0m
b0 l
b0 k
b0 j
b0 i
b0 e
b10 d
b0 c
b0 b
b1 a
b0 `
b0 _
b0 [
b1 Z
b0 Y
b0 X
b0 W
b0 V
b0 U
b0 Q
b0 P
b0 O
b0 N
b1000 M
b0 L
b0 K
b0 G
b11 F
b0 E
b1000000 D
0C
1?
b0 >
b1000000 =
b11000100110100101101110011000010111001001111001010111110110001101101000011001010110001101101011011001010111001001100010011011110110000101110010011001000010111001101101011001010110110101011100 <
b0 ;
b0 6
b0 5
01
00
0/
0.
0-
b0 ,
b0 +
b0 *
b0 )
b0 (
bx '
1&
bx %
0$
$end
#5000
1$
#10000
0$
#15000
1$
#20000
0$
b0 %
b0 '
b0 n
b0 !"
b0 2"
b0 C"
0&
#25000
b1001 M
b1 K
b1 U
b10 a
b1 _
b1 k
b1 i
b1 5
b1 6
b1 >
b1 E
b1 O
b1 Y
b1 c
1$
#30000
0$
#35000
b1010 M
b10 K
b1 W
b10 U
b11 a
b10 _
b10 k
b10 i
b10 5
b10 6
b10 >
b10 E
b10 O
b10 Y
b10 c
1$
#40000
0$
#45000
b1011 M
b11 K
b10 W
b11 U
b100 a
b11 _
b11 k
b11 i
b11 5
b11 6
b11 >
b11 E
b11 O
b11 Y
b11 c
1$
#50000
0$
#55000
b1100 M
b100 K
b11 W
b100 U
b101 a
b100 _
b100 k
b100 i
b100 5
b100 6
b100 >
b100 E
b100 O
b100 Y
b100 c
1$
#60000
0$
#65000
b1101 M
b101 K
b100 W
b101 U
b110 a
b101 _
b101 k
b101 i
b101 5
b101 6
b101 >
b101 E
b101 O
b101 Y
b101 c
1$
#70000
0$
#75000
b1110 M
b110 K
b101 W
b110 U
b111 a
b110 _
b110 k
b110 i
b110 5
b110 6
b110 >
b110 E
b110 O
b110 Y
b110 c
1$
#80000
0$
#85000
b1111 M
b111 K
b110 W
b111 U
b111 _
b111 k
b111 i
b111 5
b111 6
b111 >
b111 E
b111 O
b111 Y
b111 c
1$
#90000
0$
#95000
b10000 M
b0 K
b1 L
b1000 W
b0 U
b1 V
b1001 a
b0 _
b1 `
b0 k
b0 i
b1 j
b1000 5
b1000 6
b1000 >
b1000 E
b1000 O
b1000 Y
b1000 c
1$
#100000
0$
#105000
b10001 M
b1 K
b1 U
b1010 a
b1 _
b1 k
b1 i
b1001 5
b1001 6
b1001 >
b1001 E
b1001 O
b1001 Y
b1001 c
1$
#110000
0$
#115000
b10010 M
b10 K
b1001 W
b10 U
b1011 a
b10 _
b10 k
b10 i
b1010 5
b1010 6
b1010 >
b1010 E
b1010 O
b1010 Y
b1010 c
1$
#120000
0$
#125000
b10011 M
b11 K
b1010 W
b11 U
b1100 a
b11 _
b11 k
b11 i
b1011 5
b1011 6
b1011 >
b1011 E
b1011 O
b1011 Y
b1011 c
1$
#130000
0$
#135000
b10100 M
b100 K
b1011 W
b100 U
b1101 a
b100 _
b100 k
b100 i
b1100 5
b1100 6
b1100 >
b1100 E
b1100 O
b1100 Y
b1100 c
1$
#140000
0$
#145000
b10101 M
b101 K
b1100 W
b101 U
b1110 a
b101 _
b101 k
b101 i
b1101 5
b1101 6
b1101 >
b1101 E
b1101 O
b1101 Y
b1101 c
1$
#150000
0$
#155000
b10110 M
b110 K
b1101 W
b110 U
b1111 a
b110 _
b110 k
b110 i
b1110 5
b1110 6
b1110 >
b1110 E
b1110 O
b1110 Y
b1110 c
1$
#160000
0$
#165000
b10111 M
b111 K
b1110 W
b111 U
b111 _
b111 k
b111 i
b1111 5
b1111 6
b1111 >
b1111 E
b1111 O
b1111 Y
b1111 c
1$
#170000
0$
#175000
b11000 M
b0 K
b10 L
b10000 W
b0 U
b10 V
b10001 a
b0 _
b10 `
b1000 k
b0 i
b10 j
b10000 5
b10000 6
b10000 >
b10000 E
b10000 O
b10000 Y
b10000 c
1$
#180000
0$
#185000
b11001 M
b1 K
b1 U
b10010 a
b1 _
b1001 k
b1 i
b10001 5
b10001 6
b10001 >
b10001 E
b10001 O
b10001 Y
b10001 c
1$
#190000
0$
#195000
b11010 M
b10 K
b10001 W
b10 U
b10011 a
b10 _
b1010 k
b10 i
b10010 5
b10010 6
b10010 >
b10010 E
b10010 O
b10010 Y
b10010 c
1$
#200000
0$
#205000
b11011 M
b11 K
b10010 W
b11 U
b10100 a
b11 _
b1011 k
b11 i
b10011 5
b10011 6
b10011 >
b10011 E
b10011 O
b10011 Y
b10011 c
1$
#210000
0$
#215000
b11100 M
b100 K
b10011 W
b100 U
b10101 a
b100 _
b1100 k
b100 i
b10100 5
b10100 6
b10100 >
b10100 E
b10100 O
b10100 Y
b10100 c
1$
#220000
0$
#225000
b11101 M
b101 K
b10100 W
b101 U
b10110 a
b101 _
b1101 k
b101 i
b10101 5
b10101 6
b10101 >
b10101 E
b10101 O
b10101 Y
b10101 c
1$
#230000
0$
#235000
b11110 M
b110 K
b10101 W
b110 U
b10111 a
b110 _
b1110 k
b110 i
b10110 5
b10110 6
b10110 >
b10110 E
b10110 O
b10110 Y
b10110 c
1$
#240000
0$
#245000
b11111 M
b111 K
b10110 W
b111 U
b111 _
b1111 k
b111 i
b10111 5
b10111 6
b10111 >
b10111 E
b10111 O
b10111 Y
b10111 c
1$
#250000
0$
#255000
b100000 M
b0 K
b11 L
b11000 W
b0 U
b11 V
b11001 a
b0 _
b11 `
b10000 k
b0 i
b11 j
b11000 5
b11000 6
b11000 >
b11000 E
b11000 O
b11000 Y
b11000 c
1$
#260000
0$
#265000
b100001 M
b1 K
b1 U
b11010 a
b1 _
b10001 k
b1 i
b11001 5
b11001 6
b11001 >
b11001 E
b11001 O
b11001 Y
b11001 c
1$
#270000
0$
#275000
b100010 M
b10 K
b11001 W
b10 U
b11011 a
b10 _
b10010 k
b10 i
b11010 5
b11010 6
b11010 >
b11010 E
b11010 O
b11010 Y
b11010 c
1$
#280000
0$
#285000
b100011 M
b11 K
b11010 W
b11 U
b11100 a
b11 _
b10011 k
b11 i
b11011 5
b11011 6
b11011 >
b11011 E
b11011 O
b11011 Y
b11011 c
1$
#290000
0$
#295000
b100100 M
b100 K
b11011 W
b100 U
b11101 a
b100 _
b10100 k
b100 i
b11100 5
b11100 6
b11100 >
b11100 E
b11100 O
b11100 Y
b11100 c
1$
#300000
0$
#305000
b100101 M
b101 K
b11100 W
b101 U
b11110 a
b101 _
b10101 k
b101 i
b11101 5
b11101 6
b11101 >
b11101 E
b11101 O
b11101 Y
b11101 c
1$
#310000
0$
#315000
b100110 M
b110 K
b11101 W
b110 U
b11111 a
b110 _
b10110 k
b110 i
b11110 5
b11110 6
b11110 >
b11110 E
b11110 O
b11110 Y
b11110 c
1$
#320000
0$
#325000
b100111 M
b111 K
b11110 W
b111 U
b111 _
b10111 k
b111 i
b11111 5
b11111 6
b11111 >
b11111 E
b11111 O
b11111 Y
b11111 c
1$
#330000
0$
#335000
b101000 M
b0 K
b100 L
b100000 W
b0 U
b100 V
b100001 a
b0 _
b100 `
b11000 k
b0 i
b100 j
b100000 5
b100000 6
b100000 >
b100000 E
b100000 O
b100000 Y
b100000 c
1$
#340000
0$
#345000
b101001 M
b1 K
b1 U
b100010 a
b1 _
b11001 k
b1 i
b100001 5
b100001 6
b100001 >
b100001 E
b100001 O
b100001 Y
b100001 c
1$
#350000
0$
#355000
b101010 M
b10 K
b100001 W
b10 U
b100011 a
b10 _
b11010 k
b10 i
b100010 5
b100010 6
b100010 >
b100010 E
b100010 O
b100010 Y
b100010 c
1$
#360000
0$
#365000
b101011 M
b11 K
b100010 W
b11 U
b100100 a
b11 _
b11011 k
b11 i
b100011 5
b100011 6
b100011 >
b100011 E
b100011 O
b100011 Y
b100011 c
1$
#370000
0$
#375000
b101100 M
b100 K
b100011 W
b100 U
b100101 a
b100 _
b11100 k
b100 i
b100100 5
b100100 6
b100100 >
b100100 E
b100100 O
b100100 Y
b100100 c
1$
#380000
0$
#385000
b101101 M
b101 K
b100100 W
b101 U
b100110 a
b101 _
b11101 k
b101 i
b100101 5
b100101 6
b100101 >
b100101 E
b100101 O
b100101 Y
b100101 c
1$
#390000
0$
#395000
b101110 M
b110 K
b100101 W
b110 U
b100111 a
b110 _
b11110 k
b110 i
b100110 5
b100110 6
b100110 >
b100110 E
b100110 O
b100110 Y
b100110 c
1$
#400000
0$
#405000
b101111 M
b111 K
b100110 W
b111 U
b111 _
b11111 k
b111 i
b100111 5
b100111 6
b100111 >
b100111 E
b100111 O
b100111 Y
b100111 c
1$
#410000
0$
#415000
b110000 M
b0 K
b101 L
b101000 W
b0 U
b101 V
b101001 a
b0 _
b101 `
b100000 k
b0 i
b101 j
b101000 5
b101000 6
b101000 >
b101000 E
b101000 O
b101000 Y
b101000 c
1$
#420000
0$
#425000
b110001 M
b1 K
b1 U
b101010 a
b1 _
b100001 k
b1 i
b101001 5
b101001 6
b101001 >
b101001 E
b101001 O
b101001 Y
b101001 c
1$
#430000
0$
#435000
b110010 M
b10 K
b101001 W
b10 U
b101011 a
b10 _
b100010 k
b10 i
b101010 5
b101010 6
b101010 >
b101010 E
b101010 O
b101010 Y
b101010 c
1$
#440000
0$
#445000
b110011 M
b11 K
b101010 W
b11 U
b101100 a
b11 _
b100011 k
b11 i
b101011 5
b101011 6
b101011 >
b101011 E
b101011 O
b101011 Y
b101011 c
1$
#450000
0$
#455000
b110100 M
b100 K
b101011 W
b100 U
b101101 a
b100 _
b100100 k
b100 i
b101100 5
b101100 6
b101100 >
b101100 E
b101100 O
b101100 Y
b101100 c
1$
#460000
0$
#465000
b110101 M
b101 K
b101100 W
b101 U
b101110 a
b101 _
b100101 k
b101 i
b101101 5
b101101 6
b101101 >
b101101 E
b101101 O
b101101 Y
b101101 c
1$
#470000
0$
#475000
b110110 M
b110 K
b101101 W
b110 U
b101111 a
b110 _
b100110 k
b110 i
b101110 5
b101110 6
b101110 >
b101110 E
b101110 O
b101110 Y
b101110 c
1$
#480000
0$
#485000
b110111 M
b111 K
b101110 W
b111 U
b111 _
b100111 k
b111 i
b101111 5
b101111 6
b101111 >
b101111 E
b101111 O
b101111 Y
b101111 c
1$
#490000
0$
#495000
b111000 M
b0 K
b110 L
b110000 W
b0 U
b110 V
b110001 a
b0 _
b110 `
b101000 k
b0 i
b110 j
b110000 5
b110000 6
b110000 >
b110000 E
b110000 O
b110000 Y
b110000 c
1$
#500000
0$
#505000
b111001 M
b1 K
b1 U
b110010 a
b1 _
b101001 k
b1 i
b110001 5
b110001 6
b110001 >
b110001 E
b110001 O
b110001 Y
b110001 c
1$
#510000
0$
#515000
b111010 M
b10 K
b110001 W
b10 U
b110011 a
b10 _
b101010 k
b10 i
b110010 5
b110010 6
b110010 >
b110010 E
b110010 O
b110010 Y
b110010 c
1$
#520000
0$
#525000
b111011 M
b11 K
b110010 W
b11 U
b110100 a
b11 _
b101011 k
b11 i
b110011 5
b110011 6
b110011 >
b110011 E
b110011 O
b110011 Y
b110011 c
1$
#530000
0$
#535000
b111100 M
b100 K
b110011 W
b100 U
b110101 a
b100 _
b101100 k
b100 i
b110100 5
b110100 6
b110100 >
b110100 E
b110100 O
b110100 Y
b110100 c
1$
#540000
0$
#545000
b111101 M
b101 K
b110100 W
b101 U
b110110 a
b101 _
b101101 k
b101 i
b110101 5
b110101 6
b110101 >
b110101 E
b110101 O
b110101 Y
b110101 c
1$
#550000
0$
#555000
b111110 M
b110 K
b110101 W
b110 U
b110111 a
b110 _
b101110 k
b110 i
b110110 5
b110110 6
b110110 >
b110110 E
b110110 O
b110110 Y
b110110 c
1$
#560000
0$
#565000
b111111 M
b111 K
b110110 W
b111 U
b111 _
b101111 k
b111 i
b110111 5
b110111 6
b110111 >
b110111 E
b110111 O
b110111 Y
b110111 c
1$
#570000
0$
#575000
b111000 M
b0 K
b111 L
b111000 W
b0 U
b111 V
b111001 a
b0 _
b111 `
b110000 k
b0 i
b111 j
b111000 5
b111000 6
b111000 >
b111000 E
b111000 O
b111000 Y
b111000 c
1$
#580000
0$
#585000
b111001 M
b1 K
b1 U
b111010 a
b1 _
b110001 k
b1 i
b111001 5
b111001 6
b111001 >
b111001 E
b111001 O
b111001 Y
b111001 c
1$
#590000
0$
#595000
b111010 M
b10 K
b111001 W
b10 U
b111011 a
b10 _
b110010 k
b10 i
b111010 5
b111010 6
b111010 >
b111010 E
b111010 O
b111010 Y
b111010 c
1$
#600000
0$
#605000
b111011 M
b11 K
b111010 W
b11 U
b111100 a
b11 _
b110011 k
b11 i
b111011 5
b111011 6
b111011 >
b111011 E
b111011 O
b111011 Y
b111011 c
1$
#610000
0$
#615000
b111100 M
b100 K
b111011 W
b100 U
b111101 a
b100 _
b110100 k
b100 i
b111100 5
b111100 6
b111100 >
b111100 E
b111100 O
b111100 Y
b111100 c
1$
#620000
0$
#625000
b111101 M
b101 K
b111100 W
b101 U
b111110 a
b101 _
b110101 k
b101 i
b111101 5
b111101 6
b111101 >
b111101 E
b111101 O
b111101 Y
b111101 c
1$
#630000
0$
#635000
b111110 M
b110 K
b111101 W
b110 U
b111111 a
b110 _
b110110 k
b110 i
b111110 5
b111110 6
b111110 >
b111110 E
b111110 O
b111110 Y
b111110 c
1$
#640000
0$
#645000
b111111 M
b111 K
b111110 W
b111 U
b111 _
b110111 k
b111 i
b111111 5
b111111 6
b111111 >
b111111 E
b111111 O
b111111 Y
b111111 c
1$
#650000
0$
#655000
b1000 M
b0 K
b0 L
b0 W
b0 U
b0 V
b1 a
b0 _
b0 `
b0 k
b0 i
b0 j
b0 5
b0 6
b0 >
b0 E
b0 O
b0 Y
b0 c
1$
#660000
0$
#665000
b1001 M
b1 K
b1 U
b10 a
b1 _
b1 k
b1 i
b1 5
b1 6
b1 >
b1 E
b1 O
b1 Y
b1 c
1$
#670000
0$
#675000
b1010 M
b10 K
b1 W
b10 U
b11 a
b10 _
b10 k
b10 i
b10 5
b10 6
b10 >
b10 E
b10 O
b10 Y
b10 c
1$
#680000
0$
#685000
b1011 M
b11 K
b10 W
b11 U
b100 a
b11 _
b11 k
b11 i
b11 5
b11 6
b11 >
b11 E
b11 O
b11 Y
b11 c
1$
#690000
0$
#695000
b1100 M
b100 K
b11 W
b100 U
b101 a
b100 _
b100 k
b100 i
b100 5
b100 6
b100 >
b100 E
b100 O
b100 Y
b100 c
1$
#700000
0$
#705000
b1101 M
b101 K
b100 W
b101 U
b110 a
b101 _
b101 k
b101 i
b101 5
b101 6
b101 >
b101 E
b101 O
b101 Y
b101 c
1$
#710000
0$
#715000
b1110 M
b110 K
b101 W
b110 U
b111 a
b110 _
b110 k
b110 i
b110 5
b110 6
b110 >
b110 E
b110 O
b110 Y
b110 c
1$
#720000
0$
#725000
b1111 M
b111 K
b110 W
b111 U
b111 _
b111 k
b111 i
b111 5
b111 6
b111 >
b111 E
b111 O
b111 Y
b111 c
1$
#730000
0$
#735000
b10000 M
b0 K
b1 L
b1000 W
b0 U
b1 V
b1001 a
b0 _
b1 `
b0 k
b0 i
b1 j
b1000 5
b1000 6
b1000 >
b1000 E
b1000 O
b1000 Y
b1000 c
1$
#740000
0$
#745000
b10001 M
b1 K
b1 U
b1010 a
b1 _
b1 k
b1 i
b1001 5
b1001 6
b1001 >
b1001 E
b1001 O
b1001 Y
b1001 c
1$
#750000
0$
#755000
b10010 M
b10 K
b1001 W
b10 U
b1011 a
b10 _
b10 k
b10 i
b1010 5
b1010 6
b1010 >
b1010 E
b1010 O
b1010 Y
b1010 c
1$
#760000
0$
#765000
b10011 M
b11 K
b1010 W
b11 U
b1100 a
b11 _
b11 k
b11 i
b1011 5
b1011 6
b1011 >
b1011 E
b1011 O
b1011 Y
b1011 c
1$
#770000
0$
#775000
b10100 M
b100 K
b1011 W
b100 U
b1101 a
b100 _
b100 k
b100 i
b1100 5
b1100 6
b1100 >
b1100 E
b1100 O
b1100 Y
b1100 c
1$
#780000
0$
#785000
b10101 M
b101 K
b1100 W
b101 U
b1110 a
b101 _
b101 k
b101 i
b1101 5
b1101 6
b1101 >
b1101 E
b1101 O
b1101 Y
b1101 c
1$
#790000
0$
#795000
b10110 M
b110 K
b1101 W
b110 U
b1111 a
b110 _
b110 k
b110 i
b1110 5
b1110 6
b1110 >
b1110 E
b1110 O
b1110 Y
b1110 c
1$
#800000
0$
#805000
b10111 M
b111 K
b1110 W
b111 U
b111 _
b111 k
b111 i
b1111 5
b1111 6
b1111 >
b1111 E
b1111 O
b1111 Y
b1111 c
1$
#810000
0$
#815000
b11000 M
b0 K
b10 L
b10000 W
b0 U
b10 V
b10001 a
b0 _
b10 `
b1000 k
b0 i
b10 j
b10000 5
b10000 6
b10000 >
b10000 E
b10000 O
b10000 Y
b10000 c
1$
#820000
0$
#825000
b11001 M
b1 K
b1 U
b10010 a
b1 _
b1001 k
b1 i
b10001 5
b10001 6
b10001 >
b10001 E
b10001 O
b10001 Y
b10001 c
1$
#830000
0$
#835000
b11010 M
b10 K
b10001 W
b10 U
b10011 a
b10 _
b1010 k
b10 i
b10010 5
b10010 6
b10010 >
b10010 E
b10010 O
b10010 Y
b10010 c
1$
#840000
0$
#845000
b11011 M
b11 K
b10010 W
b11 U
b10100 a
b11 _
b1011 k
b11 i
b10011 5
b10011 6
b10011 >
b10011 E
b10011 O
b10011 Y
b10011 c
1$
#850000
0$
#855000
b11100 M
b100 K
b10011 W
b100 U
b10101 a
b100 _
b1100 k
b100 i
b10100 5
b10100 6
b10100 >
b10100 E
b10100 O
b10100 Y
b10100 c
1$
#860000
0$
#865000
b11101 M
b101 K
b10100 W
b101 U
b10110 a
b101 _
b1101 k
b101 i
b10101 5
b10101 6
b10101 >
b10101 E
b10101 O
b10101 Y
b10101 c
1$
#870000
0$
#875000
b11110 M
b110 K
b10101 W
b110 U
b10111 a
b110 _
b1110 k
b110 i
b10110 5
b10110 6
b10110 >
b10110 E
b10110 O
b10110 Y
b10110 c
1$
#880000
0$
#885000
b11111 M
b111 K
b10110 W
b111 U
b111 _
b1111 k
b111 i
b10111 5
b10111 6
b10111 >
b10111 E
b10111 O
b10111 Y
b10111 c
1$
#890000
0$
#895000
b100000 M
b0 K
b11 L
b11000 W
b0 U
b11 V
b11001 a
b0 _
b11 `
b10000 k
b0 i
b11 j
b11000 5
b11000 6
b11000 >
b11000 E
b11000 O
b11000 Y
b11000 c
1$
#900000
0$
#905000
b100001 M
b1 K
b1 U
b11010 a
b1 _
b10001 k
b1 i
b11001 5
b11001 6
b11001 >
b11001 E
b11001 O
b11001 Y
b11001 c
1$
#910000
0$
#915000
b100010 M
b10 K
b11001 W
b10 U
b11011 a
b10 _
b10010 k
b10 i
b11010 5
b11010 6
b11010 >
b11010 E
b11010 O
b11010 Y
b11010 c
1$
#920000
0$
#925000
b100011 M
b11 K
b11010 W
b11 U
b11100 a
b11 _
b10011 k
b11 i
b11011 5
b11011 6
b11011 >
b11011 E
b11011 O
b11011 Y
b11011 c
1$
#930000
0$
#935000
b100100 M
b100 K
b11011 W
b100 U
b11101 a
b100 _
b10100 k
b100 i
b11100 5
b11100 6
b11100 >
b11100 E
b11100 O
b11100 Y
b11100 c
1$
#940000
0$
#945000
b100101 M
b101 K
b11100 W
b101 U
b11110 a
b101 _
b10101 k
b101 i
b11101 5
b11101 6
b11101 >
b11101 E
b11101 O
b11101 Y
b11101 c
1$
#950000
0$
#955000
b100110 M
b110 K
b11101 W
b110 U
b11111 a
b110 _
b10110 k
b110 i
b11110 5
b11110 6
b11110 >
b11110 E
b11110 O
b11110 Y
b11110 c
1$
#960000
0$
#965000
b100111 M
b111 K
b11110 W
b111 U
b111 _
b10111 k
b111 i
b11111 5
b11111 6
b11111 >
b11111 E
b11111 O
b11111 Y
b11111 c
1$
#970000
0$
#975000
b101000 M
b0 K
b100 L
b100000 W
b0 U
b100 V
b100001 a
b0 _
b100 `
b11000 k
b0 i
b100 j
b100000 5
b100000 6
b100000 >
b100000 E
b100000 O
b100000 Y
b100000 c
1$
#980000
0$
#985000
b101001 M
b1 K
b1 U
b100010 a
b1 _
b11001 k
b1 i
b100001 5
b100001 6
b100001 >
b100001 E
b100001 O
b100001 Y
b100001 c
1$
#990000
0$
#995000
b101010 M
b10 K
b100001 W
b10 U
b100011 a
b10 _
b11010 k
b10 i
b100010 5
b100010 6
b100010 >
b100010 E
b100010 O
b100010 Y
b100010 c
1$
#1000000
0$
#1005000
b101011 M
b11 K
b100010 W
b11 U
b100100 a
b11 _
b11011 k
b11 i
b100011 5
b100011 6
b100011 >
b100011 E
b100011 O
b100011 Y
b100011 c
1$
#1010000
0$
#1015000
b101100 M
b100 K
b100011 W
b100 U
b100101 a
b100 _
b11100 k
b100 i
b100100 5
b100100 6
b100100 >
b100100 E
b100100 O
b100100 Y
b100100 c
1$
#1020000
0$
#1025000
b101101 M
b101 K
b100100 W
b101 U
b100110 a
b101 _
b11101 k
b101 i
b100101 5
b100101 6
b100101 >
b100101 E
b100101 O
b100101 Y
b100101 c
1$
#1030000
0$
#1035000
b101110 M
b110 K
b100101 W
b110 U
b100111 a
b110 _
b11110 k
b110 i
b100110 5
b100110 6
b100110 >
b100110 E
b100110 O
b100110 Y
b100110 c
1$
#1040000
0$
#1045000
b101111 M
b111 K
b100110 W
b111 U
b111 _
b11111 k
b111 i
b100111 5
b100111 6
b100111 >
b100111 E
b100111 O
b100111 Y
b100111 c
1$
#1050000
0$
#1055000
b110000 M
b0 K
b101 L
b101000 W
b0 U
b101 V
b101001 a
b0 _
b101 `
b100000 k
b0 i
b101 j
b101000 5
b101000 6
b101000 >
b101000 E
b101000 O
b101000 Y
b101000 c
1$
#1060000
0$
