edge_waveforms.vcd
$date
	Sun Nov 09 15:14:47 2025
$end
$version
	Icarus Verilog
$end
$timescale
	1ps
$end
$scope module testbench $end
$var wire 1 ! done $end
$var reg 1 " clk $end
$var reg 32 # detected_h [31:0] $end
$var reg 32 $ detected_w [31:0] $end
$var reg 16 % img_h [15:0] $end
$var reg 16 & img_w [15:0] $end
$var reg 1 ' in_digit $end
$var reg 2 ( mode [1:0] $end
$var reg 1 ) reset $end
$var reg 32 * row_pix [31:0] $end
$var integer 32 + c [31:0] $end
$var integer 32 , infile [31:0] $end
$scope module DUT $end
$var wire 1 " clk $end
$var wire 1 - eD $end
$var wire 1 . eL $end
$var wire 1 / eR $end
$var wire 1 0 eU $end
$var wire 16 1 img_height [15:0] $end
$var wire 16 2 img_width [15:0] $end
$var wire 2 3 mode [1:0] $end
$var wire 24 4 pD [23:0] $end
$var wire 24 5 pL [23:0] $end
$var wire 24 6 pR [23:0] $end
$var wire 24 7 pU [23:0] $end
$var wire 1 ) reset $end
$var wire 1 8 vU $end
$var wire 1 9 vR $end
$var wire 1 : vL $end
$var wire 1 ; vD $end
$var wire 1 < raw_eU $end
$var wire 1 = raw_eR $end
$var wire 1 > raw_eL $end
$var wire 1 ? raw_eD $end
$var wire 24 @ p0 [23:0] $end
$var wire 1 A final_edge $end
$var wire 16 B aU [15:0] $end
$var wire 16 C aR [15:0] $end
$var wire 16 D aL [15:0] $end
$var wire 16 E aD [15:0] $end
$var parameter 136 F INPUT_FILE $end
$var parameter 120 G OUTPUT_FILE $end
$var parameter 32 H PIXEL_BITS $end
$var reg 16 I addr [15:0] $end
$var reg 1 ! done $end
$var reg 1 J first_cycle $end
$var reg 1 K write_en $end
$scope module ec $end
$var wire 1 - eD $end
$var wire 1 . eL $end
$var wire 1 / eR $end
$var wire 1 0 eU $end
$var wire 1 A final_edge $end
$upscope $end
$scope module img $end
$var wire 16 L addr [15:0] $end
$var wire 24 M pixel_out [23:0] $end
$var parameter 136 N FILE_NAME $end
$var parameter 32 O MAX_PIXELS $end
$var parameter 32 P PIXEL_BITS $end
$var integer 32 Q i [31:0] $end
$upscope $end
$scope module out_mem $end
$var wire 16 R addr [15:0] $end
$var wire 1 " clk $end
$var wire 1 A edge_pixel $end
$var wire 16 S img_h [15:0] $end
$var wire 16 T img_w [15:0] $end
$var wire 1 ! save $end
$var wire 1 K write_enable $end
$var parameter 120 U FILE_NAME $end
$var parameter 32 V MAX_PIXELS $end
$var integer 32 W c [31:0] $end
$var integer 32 X f [31:0] $end
$var integer 32 Y i [31:0] $end
$var integer 32 Z r [31:0] $end
$upscope $end
$scope module sD $end
$var wire 16 [ addr [15:0] $end
$var wire 16 \ img_h [15:0] $end
$var wire 16 ] img_w [15:0] $end
$var wire 2 ^ off_x [1:0] $end
$var wire 2 _ off_y [1:0] $end
$var reg 16 ` shifted_addr [15:0] $end
$var reg 1 ; valid $end
$var integer 32 a nx [31:0] $end
$var integer 32 b ny [31:0] $end
$var integer 32 c x [31:0] $end
$var integer 32 d y [31:0] $end
$upscope $end
$scope module sL $end
$var wire 16 e addr [15:0] $end
$var wire 16 f img_h [15:0] $end
$var wire 16 g img_w [15:0] $end
$var wire 2 h off_x [1:0] $end
$var wire 2 i off_y [1:0] $end
$var reg 16 j shifted_addr [15:0] $end
$var reg 1 : valid $end
$var integer 32 k nx [31:0] $end
$var integer 32 l ny [31:0] $end
$var integer 32 m x [31:0] $end
$var integer 32 n y [31:0] $end
$upscope $end
$scope module sR $end
$var wire 16 o addr [15:0] $end
$var wire 16 p img_h [15:0] $end
$var wire 16 q img_w [15:0] $end
$var wire 2 r off_x [1:0] $end
$var wire 2 s off_y [1:0] $end
$var reg 16 t shifted_addr [15:0] $end
$var reg 1 9 valid $end
$var integer 32 u nx [31:0] $end
$var integer 32 v ny [31:0] $end
$var integer 32 w x [31:0] $end
$var integer 32 x y [31:0] $end
$upscope $end
$scope module sU $end
$var wire 16 y addr [15:0] $end
$var wire 16 z img_h [15:0] $end
$var wire 16 { img_w [15:0] $end
$var wire 2 | off_x [1:0] $end
$var wire 2 } off_y [1:0] $end
$var reg 16 ~ shifted_addr [15:0] $end
$var reg 1 8 valid $end
$var integer 32 !" nx [31:0] $end
$var integer 32 "" ny [31:0] $end
$var integer 32 #" x [31:0] $end
$var integer 32 $" y [31:0] $end
$upscope $end
$scope module xD $end
$var wire 2 %" mode [1:0] $end
$var wire 24 &" p1 [23:0] $end
$var wire 24 '" p2 [23:0] $end
$var wire 16 (" sum2 [15:0] $end
$var wire 16 )" sum1 [15:0] $end
$var wire 8 *" r2 [7:0] $end
$var wire 8 +" r1 [7:0] $end
$var wire 8 ," gray2 [7:0] $end
$var wire 8 -" gray1 [7:0] $end
$var wire 8 ." g2 [7:0] $end
$var wire 8 /" g1 [7:0] $end
$var wire 8 0" b2 [7:0] $end
$var wire 8 1" b1 [7:0] $end
$var parameter 32 2" PIXEL_BITS $end
$var reg 1 ? edge_out $end
$upscope $end
$scope module xL $end
$var wire 2 3" mode [1:0] $end
$var wire 24 4" p1 [23:0] $end
$var wire 24 5" p2 [23:0] $end
$var wire 16 6" sum2 [15:0] $end
$var wire 16 7" sum1 [15:0] $end
$var wire 8 8" r2 [7:0] $end
$var wire 8 9" r1 [7:0] $end
$var wire 8 :" gray2 [7:0] $end
$var wire 8 ;" gray1 [7:0] $end
$var wire 8 <" g2 [7:0] $end
$var wire 8 =" g1 [7:0] $end
$var wire 8 >" b2 [7:0] $end
$var wire 8 ?" b1 [7:0] $end
$var parameter 32 @" PIXEL_BITS $end
$var reg 1 > edge_out $end
$upscope $end
$scope module xR $end
$var wire 2 A" mode [1:0] $end
$var wire 24 B" p1 [23:0] $end
$var wire 24 C" p2 [23:0] $end
$var wire 16 D" sum2 [15:0] $end
$var wire 16 E" sum1 [15:0] $end
$var wire 8 F" r2 [7:0] $end
$var wire 8 G" r1 [7:0] $end
$var wire 8 H" gray2 [7:0] $end
$var wire 8 I" gray1 [7:0] $end
$var wire 8 J" g2 [7:0] $end
$var wire 8 K" g1 [7:0] $end
$var wire 8 L" b2 [7:0] $end
$var wire 8 M" b1 [7:0] $end
$var parameter 32 N" PIXEL_BITS $end
$var reg 1 = edge_out $end
$upscope $end
$scope module xU $end
$var wire 2 O" mode [1:0] $end
$var wire 24 P" p1 [23:0] $end
$var wire 24 Q" p2 [23:0] $end
$var wire 16 R" sum2 [15:0] $end
$var wire 16 S" sum1 [15:0] $end
$var wire 8 T" r2 [7:0] $end
$var wire 8 U" r1 [7:0] $end
$var wire 8 V" gray2 [7:0] $end
$var wire 8 W" gray1 [7:0] $end
$var wire 8 X" g2 [7:0] $end
$var wire 8 Y" g1 [7:0] $end
$var wire 8 Z" b2 [7:0] $end
$var wire 8 [" b1 [7:0] $end
$var parameter 32 \" PIXEL_BITS $end
$var reg 1 < edge_out $end
$upscope $end
$upscope $end
$upscope $end
$enddefinitions $end
$comment Show the parameter values. $end
$dumpall
b11000 \"
b11000 N"
b11000 @"
b11000 2"
b10000000000000000 V
b11001010110010001100111011001010101111101101111011101010111010001110000011101010111010000101110011011010110010101101101 U
b11000 P
b10000000000000000 O
b111010101101110011010010111011001100101011100100111001101100001011011000101111100111000011110000011100000101110011011010110010101101101 N
b11000 H
b11001010110010001100111011001010101111101101111011101010111010001110000011101010111010000101110011011010110010101101101 G
b111010101101110011010010111011001100101011100100111001101100001011011000101111100111000011110000011100000101110011011010110010101101101 F
$end
#0
$dumpvars
b1 ["
b1 Z"
b0 Y"
b0 X"
b0 W"
b0 V"
b0 U"
b0 T"
b1 S"
b1 R"
b1 Q"
b1 P"
b10 O"
b1 M"
b1 L"
b0 K"
b0 J"
b0 I"
b0 H"
b0 G"
b0 F"
b1 E"
b1 D"
b1 C"
b1 B"
b10 A"
b1 ?"
b1 >"
b0 ="
b0 <"
b0 ;"
b0 :"
b0 9"
b0 8"
b1 7"
b1 6"
b1 5"
b1 4"
b10 3"
b1 1"
b1 0"
b0 /"
b0 ."
b0 -"
b0 ,"
b0 +"
b0 *"
b1 )"
b1 ("
b1 '"
b1 &"
b10 %"
b0 $"
b0 #"
b11111111111111111111111111111111 ""
b0 !"
b0 ~
b11 }
b0 |
b1000 {
b1000 z
b0 y
b0 x
b0 w
b0 v
b1 u
b1 t
b0 s
b1 r
b1000 q
b1000 p
b0 o
b0 n
b0 m
b0 l
b11111111111111111111111111111111 k
b0 j
b0 i
b11 h
b1000 g
b1000 f
b0 e
b0 d
b0 c
b1 b
b0 a
b1000 `
b1 _
b0 ^
b1000 ]
b1000 \
b0 [
bx Z
b10000000000000000 Y
bx X
bx W
b1000 T
b1000 S
b0 R
b10000000000000000 Q
b1 M
b0 L
0K
1J
b0 I
b1000 E
b0 D
b1 C
b0 B
0A
b1 @
0?
0>
0=
0<
1;
0:
19
08
b1 7
b1 6
b1 5
b1 4
b10 3
b1000 2
b1000 1
00
0/
0.
0-
b10000000000000000000000000000011 ,
b11111111111111111111111111111111 +
b0 *
1)
b10 (
0'
b1000 &
b1000 %
b1000 $
b1000 #
0"
0!
$end
#5000
1"
#10000
0"
#15000
0J
1K
1"
0)
#20000
0"
#25000
1A
1-
1?
b0 ("
b0 0"
b0 4
b0 '"
b1001 E
b1001 `
b1 a
b1 c
1:
b0 k
b1 m
b10 C
b10 t
b10 u
b1 w
b1 B
b1 ~
b1 !"
b1 #"
b1 I
b1 L
b1 R
b1 [
b1 e
b1 o
b1 y
1"
#30000
0"
#35000
b1010 E
b1010 `
b10 a
b10 c
b1 D
b1 j
b1 k
b10 m
b11 C
b11 t
b11 u
b10 w
b10 B
b10 ~
b10 !"
b10 #"
b10 I
b10 L
b10 R
b10 [
b10 e
b10 o
b10 y
1"
#40000
0"
#45000
b1011 E
b1011 `
b11 a
b11 c
b10 D
b10 j
b10 k
b11 m
b100 C
b100 t
b100 u
b11 w
b11 B
b11 ~
b11 !"
b11 #"
b11 I
b11 L
b11 R
b11 [
b11 e
b11 o
b11 y
1"
#50000
0"
#55000
b1100 E
b1100 `
b100 a
b100 c
b11 D
b11 j
b11 k
b100 m
b101 C
b101 t
b101 u
b100 w
b100 B
b100 ~
b100 !"
b100 #"
b100 I
b100 L
b100 R
b100 [
b100 e
b100 o
b100 y
1"
#60000
0"
#65000
b1101 E
b1101 `
b101 a
b101 c
b100 D
b100 j
b100 k
b101 m
b110 C
b110 t
b110 u
b101 w
b101 B
b101 ~
b101 !"
b101 #"
b101 I
b101 L
b101 R
b101 [
b101 e
b101 o
b101 y
1"
#70000
0"
#75000
b1110 E
b1110 `
b110 a
b110 c
b101 D
b101 j
b101 k
b110 m
b111 C
b111 t
b111 u
b110 w
b110 B
b110 ~
b110 !"
b110 #"
b110 I
b110 L
b110 R
b110 [
b110 e
b110 o
b110 y
1"
#80000
0"
#85000
0A
0-
0?
b1 ("
b1 0"
b1 4
b1 '"
b1111 E
b1111 `
b111 a
b111 c
b110 D
b110 j
b110 k
b111 m
09
b1000 u
b111 w
b111 B
b111 ~
b111 !"
b111 #"
b111 I
b111 L
b111 R
b111 [
b111 e
b111 o
b111 y
1"
#90000
0"
#95000
1A
1/
1=
b0 D"
b0 L"
b10000 E
b10000 `
b10 b
b0 a
b1 d
b0 c
b1000 D
b1000 j
0:
b1 l
b11111111111111111111111111111111 k
b1 n
b0 m
b0 6
b0 C"
b1001 C
b1001 t
19
b1 v
b1 u
b1 x
b0 w
b0 B
b0 ~
18
b0 ""
b0 !"
b1 $"
b0 #"
b1000 I
b1000 L
b1000 R
b1000 [
b1000 e
b1000 o
b1000 y
1"
#100000
0"
#105000
0/
10
b0 ("
b0 0"
1.
b0 )"
b0 1"
1>
b0 7"
b0 ?"
0=
b0 E"
b0 M"
1<
b0 S"
b0 ["
b0 4
b0 '"
b10001 E
b10001 `
b1 a
b1 c
1:
b0 k
b1 m
b1010 C
b1010 t
b10 u
b1 w
b1 B
b1 ~
b1 !"
b1 #"
b0 @
b0 M
b0 &"
b0 4"
b0 B"
b0 P"
b1001 I
b1001 L
b1001 R
b1001 [
b1001 e
b1001 o
b1001 y
1"
#110000
0"
#115000
0.
0>
b0 6"
b0 >"
b10010 E
b10010 `
b10 a
b10 c
b0 5
b0 5"
b1001 D
b1001 j
b1 k
b10 m
b1011 C
b1011 t
b11 u
b10 w
b10 B
b10 ~
b10 !"
b10 #"
b1010 I
b1010 L
b1010 R
b1010 [
b1010 e
b1010 o
b1010 y
1"
#120000
0"
#125000
b10011 E
b10011 `
b11 a
b11 c
b1010 D
b1010 j
b10 k
b11 m
b1100 C
b1100 t
b100 u
b11 w
b11 B
b11 ~
b11 !"
b11 #"
b1011 I
b1011 L
b1011 R
b1011 [
b1011 e
b1011 o
b1011 y
1"
#130000
0"
#135000
b10100 E
b10100 `
b100 a
b100 c
b1011 D
b1011 j
b11 k
b100 m
b1101 C
b1101 t
b101 u
b100 w
b100 B
b100 ~
b100 !"
b100 #"
b1100 I
b1100 L
b1100 R
b1100 [
b1100 e
b1100 o
b1100 y
1"
#140000
0"
#145000
b10101 E
b10101 `
b101 a
b101 c
b1100 D
b1100 j
b100 k
b101 m
b1110 C
b1110 t
b110 u
b101 w
b101 B
b101 ~
b101 !"
b101 #"
b1101 I
b1101 L
b1101 R
b1101 [
b1101 e
b1101 o
b1101 y
1"
#150000
0"
#155000
1/
1=
b1 D"
b1 L"
b10110 E
b10110 `
b110 a
b110 c
b1101 D
b1101 j
b101 k
b110 m
b1 6
b1 C"
b1111 C
b1111 t
b111 u
b110 w
b110 B
b110 ~
b110 !"
b110 #"
b1110 I
b1110 L
b1110 R
b1110 [
b1110 e
b1110 o
b1110 y
1"
#160000
0"
#165000
1.
00
b1 ("
b1 0"
0/
b1 )"
b1 1"
1>
b1 7"
b1 ?"
0=
b1 E"
b1 M"
0<
b1 S"
b1 ["
b1 4
b1 '"
b10111 E
b10111 `
b111 a
b111 c
b1110 D
b1110 j
b110 k
b111 m
09
b1000 u
b111 w
b111 B
b111 ~
b111 !"
b111 #"
b1 @
b1 M
b1 &"
b1 4"
b1 B"
b1 P"
b1111 I
b1111 L
b1111 R
b1111 [
b1111 e
b1111 o
b1111 y
1"
#170000
0"
#175000
1/
0>
b1 6"
b1 >"
0.
1=
b0 D"
b0 L"
b11000 E
b11000 `
b11 b
b0 a
b10 d
b0 c
b1 5
b1 5"
b10000 D
b10000 j
0:
b10 l
b11111111111111111111111111111111 k
b10 n
b0 m
b0 6
b0 C"
b10001 C
b10001 t
19
b10 v
b1 u
b10 x
b0 w
b1000 B
b1000 ~
b1 ""
b0 !"
b10 $"
b0 #"
b10000 I
b10000 L
b10000 R
b10000 [
b10000 e
b10000 o
b10000 y
1"
#180000
0"
#185000
0/
b0 ("
b0 0"
1.
b0 R"
b0 Z"
b0 )"
b0 1"
1>
b0 7"
b0 ?"
0=
b0 E"
b0 M"
b0 S"
b0 ["
b0 4
b0 '"
b11001 E
b11001 `
b1 a
b1 c
1:
b0 k
b1 m
b10010 C
b10010 t
b10 u
b1 w
b0 7
b0 Q"
b1001 B
b1001 ~
b1 !"
b1 #"
b0 @
b0 M
b0 &"
b0 4"
b0 B"
b0 P"
b10001 I
b10001 L
b10001 R
b10001 [
b10001 e
b10001 o
b10001 y
1"
#190000
0"
#195000
0A
0.
0>
b0 6"
b0 >"
b11010 E
b11010 `
b10 a
b10 c
b0 5
b0 5"
b10001 D
b10001 j
b1 k
b10 m
b10011 C
b10011 t
b11 u
b10 w
b1010 B
b1010 ~
b10 !"
b10 #"
b10010 I
b10010 L
b10010 R
b10010 [
b10010 e
b10010 o
b10010 y
1"
#200000
0"
#205000
b11011 E
b11011 `
b11 a
b11 c
b10010 D
b10010 j
b10 k
b11 m
b10100 C
b10100 t
b100 u
b11 w
b1011 B
b1011 ~
b11 !"
b11 #"
b10011 I
b10011 L
b10011 R
b10011 [
b10011 e
b10011 o
b10011 y
1"
#210000
0"
#215000
b11100 E
b11100 `
b100 a
b100 c
b10011 D
b10011 j
b11 k
b100 m
b10101 C
b10101 t
b101 u
b100 w
b1100 B
b1100 ~
b100 !"
b100 #"
b10100 I
b10100 L
b10100 R
b10100 [
b10100 e
b10100 o
b10100 y
1"
#220000
0"
#225000
b11101 E
b11101 `
b101 a
b101 c
b10100 D
b10100 j
b100 k
b101 m
b10110 C
b10110 t
b110 u
b101 w
b1101 B
b1101 ~
b101 !"
b101 #"
b10101 I
b10101 L
b10101 R
b10101 [
b10101 e
b10101 o
b10101 y
1"
#230000
0"
#235000
1A
1/
1=
b1 D"
b1 L"
b11110 E
b11110 `
b110 a
b110 c
b10101 D
b10101 j
b101 k
b110 m
b1 6
b1 C"
b10111 C
b10111 t
b111 u
b110 w
b1110 B
b1110 ~
b110 !"
b110 #"
b10110 I
b10110 L
b10110 R
b10110 [
b10110 e
b10110 o
b10110 y
1"
#240000
0"
#245000
1.
b1 ("
b1 0"
0/
b1 R"
b1 Z"
b1 )"
b1 1"
1>
b1 7"
b1 ?"
0=
b1 E"
b1 M"
b1 S"
b1 ["
b1 4
b1 '"
b11111 E
b11111 `
b111 a
b111 c
b10110 D
b10110 j
b110 k
b111 m
09
b1000 u
b111 w
b1 7
b1 Q"
b1111 B
b1111 ~
b111 !"
b111 #"
b1 @
b1 M
b1 &"
b1 4"
b1 B"
b1 P"
b10111 I
b10111 L
b10111 R
b10111 [
b10111 e
b10111 o
b10111 y
1"
#250000
0"
#255000
1/
0>
b1 6"
b1 >"
0.
1=
b0 D"
b0 L"
b100000 E
b100000 `
b100 b
b0 a
b11 d
b0 c
b1 5
b1 5"
b11000 D
b11000 j
0:
b11 l
b11111111111111111111111111111111 k
b11 n
b0 m
b0 6
b0 C"
b11001 C
b11001 t
19
b11 v
b1 u
b11 x
b0 w
b10000 B
b10000 ~
b10 ""
b0 !"
b11 $"
b0 #"
b11000 I
b11000 L
b11000 R
b11000 [
b11000 e
b11000 o
b11000 y
1"
#260000
0"
#265000
0/
b0 ("
b0 0"
1.
b0 R"
b0 Z"
b0 )"
b0 1"
1>
b0 7"
b0 ?"
0=
b0 E"
b0 M"
b0 S"
b0 ["
b0 4
b0 '"
b100001 E
b100001 `
b1 a
b1 c
1:
b0 k
b1 m
b11010 C
b11010 t
b10 u
b1 w
b0 7
b0 Q"
b10001 B
b10001 ~
b1 !"
b1 #"
b0 @
b0 M
b0 &"
b0 4"
b0 B"
b0 P"
b11001 I
b11001 L
b11001 R
b11001 [
b11001 e
b11001 o
b11001 y
1"
#270000
0"
#275000
0A
0.
0>
b0 6"
b0 >"
b100010 E
b100010 `
b10 a
b10 c
b0 5
b0 5"
b11001 D
b11001 j
b1 k
b10 m
b11011 C
b11011 t
b11 u
b10 w
b10010 B
b10010 ~
b10 !"
b10 #"
b11010 I
b11010 L
b11010 R
b11010 [
b11010 e
b11010 o
b11010 y
1"
#280000
0"
#285000
b100011 E
b100011 `
b11 a
b11 c
b11010 D
b11010 j
b10 k
b11 m
b11100 C
b11100 t
b100 u
b11 w
b10011 B
b10011 ~
b11 !"
b11 #"
b11011 I
b11011 L
b11011 R
b11011 [
b11011 e
b11011 o
b11011 y
1"
#290000
0"
#295000
b100100 E
b100100 `
b100 a
b100 c
b11011 D
b11011 j
b11 k
b100 m
b11101 C
b11101 t
b101 u
b100 w
b10100 B
b10100 ~
b100 !"
b100 #"
b11100 I
b11100 L
b11100 R
b11100 [
b11100 e
b11100 o
b11100 y
1"
#300000
0"
#305000
b100101 E
b100101 `
b101 a
b101 c
b11100 D
b11100 j
b100 k
b101 m
b11110 C
b11110 t
b110 u
b101 w
b10101 B
b10101 ~
b101 !"
b101 #"
b11101 I
b11101 L
b11101 R
b11101 [
b11101 e
b11101 o
b11101 y
1"
#310000
0"
#315000
1A
1/
1=
b1 D"
b1 L"
b100110 E
b100110 `
b110 a
b110 c
b11101 D
b11101 j
b101 k
b110 m
b1 6
b1 C"
b11111 C
b11111 t
b111 u
b110 w
b10110 B
b10110 ~
b110 !"
b110 #"
b11110 I
b11110 L
b11110 R
b11110 [
b11110 e
b11110 o
b11110 y
1"
#320000
0"
#325000
1.
b1 ("
b1 0"
0/
b1 R"
b1 Z"
b1 )"
b1 1"
1>
b1 7"
b1 ?"
0=
b1 E"
b1 M"
b1 S"
b1 ["
b1 4
b1 '"
b100111 E
b100111 `
b111 a
b111 c
b11110 D
b11110 j
b110 k
b111 m
09
b1000 u
b111 w
b1 7
b1 Q"
b10111 B
b10111 ~
b111 !"
b111 #"
b1 @
b1 M
b1 &"
b1 4"
b1 B"
b1 P"
b11111 I
b11111 L
b11111 R
b11111 [
b11111 e
b11111 o
b11111 y
1"
#330000
0"
#335000
1/
0>
b1 6"
b1 >"
0.
1=
b0 D"
b0 L"
b101000 E
b101000 `
b101 b
b0 a
b100 d
b0 c
b1 5
b1 5"
b100000 D
b100000 j
0:
b100 l
b11111111111111111111111111111111 k
b100 n
b0 m
b0 6
b0 C"
b100001 C
b100001 t
19
b100 v
b1 u
b100 x
b0 w
b11000 B
b11000 ~
b11 ""
b0 !"
b100 $"
b0 #"
b100000 I
b100000 L
b100000 R
b100000 [
b100000 e
b100000 o
b100000 y
1"
#340000
0"
#345000
0/
b0 ("
b0 0"
1.
b0 R"
b0 Z"
b0 )"
b0 1"
1>
b0 7"
b0 ?"
0=
b0 E"
b0 M"
b0 S"
b0 ["
b0 4
b0 '"
b101001 E
b101001 `
b1 a
b1 c
1:
b0 k
b1 m
b100010 C
b100010 t
b10 u
b1 w
b0 7
b0 Q"
b11001 B
b11001 ~
b1 !"
b1 #"
b0 @
b0 M
b0 &"
b0 4"
b0 B"
b0 P"
b100001 I
b100001 L
b100001 R
b100001 [
b100001 e
b100001 o
b100001 y
1"
#350000
0"
#355000
0A
0.
0>
b0 6"
b0 >"
b101010 E
b101010 `
b10 a
b10 c
b0 5
b0 5"
b100001 D
b100001 j
b1 k
b10 m
b100011 C
b100011 t
b11 u
b10 w
b11010 B
b11010 ~
b10 !"
b10 #"
b100010 I
b100010 L
b100010 R
b100010 [
b100010 e
b100010 o
b100010 y
1"
#360000
0"
#365000
b101011 E
b101011 `
b11 a
b11 c
b100010 D
b100010 j
b10 k
b11 m
b100100 C
b100100 t
b100 u
b11 w
b11011 B
b11011 ~
b11 !"
b11 #"
b100011 I
b100011 L
b100011 R
b100011 [
b100011 e
b100011 o
b100011 y
1"
#370000
0"
#375000
b101100 E
b101100 `
b100 a
b100 c
b100011 D
b100011 j
b11 k
b100 m
b100101 C
b100101 t
b101 u
b100 w
b11100 B
b11100 ~
b100 !"
b100 #"
b100100 I
b100100 L
b100100 R
b100100 [
b100100 e
b100100 o
b100100 y
1"
#380000
0"
#385000
b101101 E
b101101 `
b101 a
b101 c
b100100 D
b100100 j
b100 k
b101 m
b100110 C
b100110 t
b110 u
b101 w
b11101 B
b11101 ~
b101 !"
b101 #"
b100101 I
b100101 L
b100101 R
b100101 [
b100101 e
b100101 o
b100101 y
1"
#390000
0"
#395000
1A
1/
1=
b1 D"
b1 L"
b101110 E
b101110 `
b110 a
b110 c
b100101 D
b100101 j
b101 k
b110 m
b1 6
b1 C"
b100111 C
b100111 t
b111 u
b110 w
b11110 B
b11110 ~
b110 !"
b110 #"
b100110 I
b100110 L
b100110 R
b100110 [
b100110 e
b100110 o
b100110 y
1"
#400000
0"
#405000
1.
b1 ("
b1 0"
0/
b1 R"
b1 Z"
b1 )"
b1 1"
1>
b1 7"
b1 ?"
0=
b1 E"
b1 M"
b1 S"
b1 ["
b1 4
b1 '"
b101111 E
b101111 `
b111 a
b111 c
b100110 D
b100110 j
b110 k
b111 m
09
b1000 u
b111 w
b1 7
b1 Q"
b11111 B
b11111 ~
b111 !"
b111 #"
b1 @
b1 M
b1 &"
b1 4"
b1 B"
b1 P"
b100111 I
b100111 L
b100111 R
b100111 [
b100111 e
b100111 o
b100111 y
1"
#410000
0"
#415000
1/
0>
b1 6"
b1 >"
0.
1=
b0 D"
b0 L"
b110000 E
b110000 `
b110 b
b0 a
b101 d
b0 c
b1 5
b1 5"
b101000 D
b101000 j
0:
b101 l
b11111111111111111111111111111111 k
b101 n
b0 m
b0 6
b0 C"
b101001 C
b101001 t
19
b101 v
b1 u
b101 x
b0 w
b100000 B
b100000 ~
b100 ""
b0 !"
b101 $"
b0 #"
b101000 I
b101000 L
b101000 R
b101000 [
b101000 e
b101000 o
b101000 y
1"
#420000
0"
#425000
0/
b0 ("
b0 0"
1.
b0 R"
b0 Z"
b0 )"
b0 1"
1>
b0 7"
b0 ?"
0=
b0 E"
b0 M"
b0 S"
b0 ["
b0 4
b0 '"
b110001 E
b110001 `
b1 a
b1 c
1:
b0 k
b1 m
b101010 C
b101010 t
b10 u
b1 w
b0 7
b0 Q"
b100001 B
b100001 ~
b1 !"
b1 #"
b0 @
b0 M
b0 &"
b0 4"
b0 B"
b0 P"
b101001 I
b101001 L
b101001 R
b101001 [
b101001 e
b101001 o
b101001 y
1"
#430000
0"
#435000
0A
0.
0>
b0 6"
b0 >"
b110010 E
b110010 `
b10 a
b10 c
b0 5
b0 5"
b101001 D
b101001 j
b1 k
b10 m
b101011 C
b101011 t
b11 u
b10 w
b100010 B
b100010 ~
b10 !"
b10 #"
b101010 I
b101010 L
b101010 R
b101010 [
b101010 e
b101010 o
b101010 y
1"
#440000
0"
#445000
b110011 E
b110011 `
b11 a
b11 c
b101010 D
b101010 j
b10 k
b11 m
b101100 C
b101100 t
b100 u
b11 w
b100011 B
b100011 ~
b11 !"
b11 #"
b101011 I
b101011 L
b101011 R
b101011 [
b101011 e
b101011 o
b101011 y
1"
#450000
0"
#455000
b110100 E
b110100 `
b100 a
b100 c
b101011 D
b101011 j
b11 k
b100 m
b101101 C
b101101 t
b101 u
b100 w
b100100 B
b100100 ~
b100 !"
b100 #"
b101100 I
b101100 L
b101100 R
b101100 [
b101100 e
b101100 o
b101100 y
1"
#460000
0"
#465000
b110101 E
b110101 `
b101 a
b101 c
b101100 D
b101100 j
b100 k
b101 m
b101110 C
b101110 t
b110 u
b101 w
b100101 B
b100101 ~
b101 !"
b101 #"
b101101 I
b101101 L
b101101 R
b101101 [
b101101 e
b101101 o
b101101 y
1"
#470000
0"
#475000
1A
1/
1=
b1 D"
b1 L"
b110110 E
b110110 `
b110 a
b110 c
b101101 D
b101101 j
b101 k
b110 m
b1 6
b1 C"
b101111 C
b101111 t
b111 u
b110 w
b100110 B
b100110 ~
b110 !"
b110 #"
b101110 I
b101110 L
b101110 R
b101110 [
b101110 e
b101110 o
b101110 y
1"
#480000
0"
#485000
1.
b1 ("
b1 0"
0/
b1 R"
b1 Z"
b1 )"
b1 1"
1>
b1 7"
b1 ?"
0=
b1 E"
b1 M"
b1 S"
b1 ["
b1 4
b1 '"
b110111 E
b110111 `
b111 a
b111 c
b101110 D
b101110 j
b110 k
b111 m
09
b1000 u
b111 w
b1 7
b1 Q"
b100111 B
b100111 ~
b111 !"
b111 #"
b1 @
b1 M
b1 &"
b1 4"
b1 B"
b1 P"
b101111 I
b101111 L
b101111 R
b101111 [
b101111 e
b101111 o
b101111 y
1"
#490000
0"
#495000
1/
0>
b1 6"
b1 >"
0.
1=
b0 D"
b0 L"
b111000 E
b111000 `
b111 b
b0 a
b110 d
b0 c
b1 5
b1 5"
b110000 D
b110000 j
0:
b110 l
b11111111111111111111111111111111 k
b110 n
b0 m
b0 6
b0 C"
b110001 C
b110001 t
19
b110 v
b1 u
b110 x
b0 w
b101000 B
b101000 ~
b101 ""
b0 !"
b110 $"
b0 #"
b110000 I
b110000 L
b110000 R
b110000 [
b110000 e
b110000 o
b110000 y
1"
#500000
0"
#505000
1-
0/
1.
b0 R"
b0 Z"
1?
b0 )"
b0 1"
1>
b0 7"
b0 ?"
0=
b0 E"
b0 M"
b0 S"
b0 ["
b111001 E
b111001 `
b1 a
b1 c
1:
b0 k
b1 m
b110010 C
b110010 t
b10 u
b1 w
b0 7
b0 Q"
b101001 B
b101001 ~
b1 !"
b1 #"
b0 @
b0 M
b0 &"
b0 4"
b0 B"
b0 P"
b110001 I
b110001 L
b110001 R
b110001 [
b110001 e
b110001 o
b110001 y
1"
#510000
0"
#515000
0.
0>
b0 6"
b0 >"
b111010 E
b111010 `
b10 a
b10 c
b0 5
b0 5"
b110001 D
b110001 j
b1 k
b10 m
b110011 C
b110011 t
b11 u
b10 w
b101010 B
b101010 ~
b10 !"
b10 #"
b110010 I
b110010 L
b110010 R
b110010 [
b110010 e
b110010 o
b110010 y
1"
#520000
0"
#525000
b111011 E
b111011 `
b11 a
b11 c
b110010 D
b110010 j
b10 k
b11 m
b110100 C
b110100 t
b100 u
b11 w
b101011 B
b101011 ~
b11 !"
b11 #"
b110011 I
b110011 L
b110011 R
b110011 [
b110011 e
b110011 o
b110011 y
1"
#530000
0"
#535000
b111100 E
b111100 `
b100 a
b100 c
b110011 D
b110011 j
b11 k
b100 m
b110101 C
b110101 t
b101 u
b100 w
b101100 B
b101100 ~
b100 !"
b100 #"
b110100 I
b110100 L
b110100 R
b110100 [
b110100 e
b110100 o
b110100 y
1"
#540000
0"
#545000
b111101 E
b111101 `
b101 a
b101 c
b110100 D
b110100 j
b100 k
b101 m
b110110 C
b110110 t
b110 u
b101 w
b101101 B
b101101 ~
b101 !"
b101 #"
b110101 I
b110101 L
b110101 R
b110101 [
b110101 e
b110101 o
b110101 y
1"
#550000
0"
#555000
1/
1=
b1 D"
b1 L"
b111110 E
b111110 `
b110 a
b110 c
b110101 D
b110101 j
b101 k
b110 m
b1 6
b1 C"
b110111 C
b110111 t
b111 u
b110 w
b101110 B
b101110 ~
b110 !"
b110 #"
b110110 I
b110110 L
b110110 R
b110110 [
b110110 e
b110110 o
b110110 y
1"
#560000
0"
